Antibody	HS1_1	HS1_2	HS1_3	M170929	M180223	M181024	HS2_1	HS2_2	HS2_4	HS3_1	HS3_2	HS3_4	LN_MM_1	LN_MM_4	LN_MM2
CD1c	2	2	2	2	2.5	2	3	2	2	3	3	3.5	2	2.2	2
CD1d	3	3	2.5	3	3	2.5	3	2.5	2.5	4	4	4	3.5	3.2	3.5
CD2	3	3	3	2.5	2.5	2.5	3	2.5	2.5	3	3	3	3	3.5	2.5
CD3	2.5	2.2	2.5	3	2.5	3	2.5	2.5	2.5	4	4	3.5	3.5	3.5	3
CD4_RPA-T4	2	2	2	2	2	2	2	2	2	3	3	3	2.5	2.2	2.5
CD5	2.5	2.5	2.5	2.5	2.5	2.5	3	3	2.5	4	4	4	3.5	3.5	3.5
CD8a_RPA-T8	2.2	2.5	2.5	2.5	2.5	2.5	2.8	3	3	4	4	4	3.5	3.5	3.5
CD10	3	2	2	2	2	2	2.5	2.2	2	2.5	2.5	2.5	2.5	2.5	2
CD11a	4	3.5	4	3	3	2.8	4	3.5	3.5	4	4	4	3	2.5	2.5
CD11b	3	3	2.5	3	3	3	3	3	3	4.5	4	4	3.5	3.8	3.5
CD11c	4	3	3	3	3	2.5	4	3	3	4	5	4	4	4	3.5
CD14	3	2.5	2.5	3	3	3	3.5	3	3	4	4.5	5	4	4	3.5
CD15	3	2.5	2.5	3	3	3	3	3	3	4	4	4	4	4	4
CD16	2	2	0.5	2	2	2	2	2	2	3	3	3	2	2	2
CD19	3	2.5	2	2.5	3	2.5	3	2	3	4	4	4	2.5	2.5	2.5
CD20	3	2	2	2.5	2	2	3	2	2	3.5	3	3	2.5	2.2	2.3
CD21	3.5	3.5	3	3.5	3.5	3	3	2.5	3	3.5	4	4	3	3	3
CD22	3	2	2	2.5	2	2	3	3	3	3.5	3.5	3	2.7	2.5	2.2
CD24	3	3	2.5	3	2.5	3	3	3	3	3	4	4	3.5	3	3
CD25	3	2.5	2.5	3	3	3	4	3	4	4	5	4.5	4	4	4
CD27	2.3	2	2	2	2	2	2	2	2	3	3	3	2	2	2
CD28	2.5	2	2.5	3	3	3	3	3	3	4	4	5	4	4	4
CD30	2.7	2.5	2.5	3	3	3	2.5	2.5	3	4	4	4	3	3	3
CD31	3.3	3	3	3	3	3	5	4	5	5	5	4.5	5	3.8	4
CD32	3	2.5	3	2.5	2	2	3	2.5	3	3	4	4	3.8	3	3
CD33	1.5	1.5	1.5	2	2	2	2	2	3	2.5	3	3	2	2	2
CD36	2.8	2.5	2	2.5	2	2.5	3	2.5	2.5	4	5	5	3.7	3.3	3
CD38	2	2	2	2.5	2.5	2.5	2.5	2.5	2	4	4	4	4	3.8	3
CD39	2.5	3	2.5	3	2.5	3	3	2.8	3	4	4	4	4	3.5	3.5
CD40	2	2	2	1.5	2	2	2	2	2.5	2	3	2	2	1.5	2
CD44	3.7	3	3	3	3	3	3.5	3	3	4	5	4.5	3.7	3	1
CD45	3	3	2	1.5	1.5	1.5	3	3	3	4	3.5	4	3.2	3.8	2.7
CD45RO	2	1.5	2	2	1.5	2	2	2	2	3.5	4	4	2.2	2.5	3
CD45RA	2	2	1.5	2	2	2	2	2	2	2.8	2	3	2.5	3	2
CD47	3	3	4	2	1.5	2	5	6	5.5	4	5	3	2.5	2.5	2
CD48	3	2	2.5	1.5	1.5	1	3	2	3	2.5	3	3	2	2	2
CD49f	3	3	3	3	2.5	3	5	5	5	5	5	5	3	3	3
CD56	3	2	2	3	3	3	3	3	4	4	4	4	3.5	3.5	3.5
CD57	3.5	3	3	3	3	2.5	3	3	3	4	4	4	3.2	4	3.5
CD58	2	2	2	2	2	1.8	3	3	3	4	4	4	3	3	2.5
CD62L	3	2	2	2	2	2	3	2	3	4	3	3	3	2.5	3
CD64	2	2	2	1.5	1.8	2	2	2	3	3	3.8	3.8	2.7	2.5	2.5
CD66b	3.5	2.5	2.5	3	3	3	3	2	2.5	4	4	4	3	2.5	2.8
CD69	2	2	2	2.5	2.2	2	3	3	3	3	4	3.5	3	3	3.2
CD70	3.2	3	3	3.5	3	3.2	4	3.5	3	3	4.5	5	4	3.5	3.5
CD71	3	2	2	2	2	2	3.5	3	2.5	3	3.3	4	4	2.7	2.5
CD73	2.5	2.5	2.5	2.5	2.5	2.5	4	3	2.5	4	4	5	3.8	3	2.7
CD80	3	2.5	2.5	3	3	3	3	3	3	4	4	4	4	3.5	3.5
CD81	2.5	2.5	2.5	3	3.5	3	4	3	4	4	4	5	4	4	4
CD86	2.5	2	2.5	3	3	3	3	3	4	3.5	4	4.5	4	4	4
CD90	4	4	3.5	3.5	3.5	3.5	5	3.5	3.5	5	5	5	4	4	4.8
CD95	2	2.5	2.5	2	2.5	1.5	3	3	3	4	4	4	3.2	3	3
CD96	2.5	2.2	2.2	2	2.5	2.5	3	3	3	3.5	3.5	4	3.5	3.5	3.5
CD103	2.5	2	2	2	2	2	2	2	2	2	3	3	2.2	2	2
CD107a	3	2.5	2.5	3	3	3	4	3	3.5	4	4	4	3.8	3.8	3
CD117	2.2	2	2	2.3	3	3	3	2	3	3.5	3.5	3	3	2.5	2.5
CD123	2	2	1.5	2	1.8	2	2	2	2	3	3	3.5	3	2.8	3
CD124	3	2.5	2.5	3	3	3	3	2.5	2.5	4	4	4	3	3	3.2
CD127	2.5	2.5	1.7	3	2.5	3	2.5	3	2.5	3	4	4	3	3.5	3
CD134	3	3	2.5	3	3	3	3	3	3	4	4	4	4	4	3.4
CD137	3	3	3	3	3	3	3	3	3	4	4	4.5	4	4	4
CD138	2.2	2.2	2	3	2.5	3	2.2	2	2	2.5	3	3	2.5	2.5	2
CD141	3	2.8	3	3	2	3	4	3	3.5	4	5	5	4.5	4	4.5
CD152	2	2	2	2	2	2	3	2.2	3	3	3.5	3.5	3	3	3
CD154	2.5	2.5	2.5	3	3	3	3	2.2	3	4	4	4	3.5	3	4
CD161	2	2	2	3	2.2	2.5	2	2	3	3	3	3	3	3	2.5
CD183	4	4	3.6	4	3.8	4	4	4	3.8	5	5	5	4	4.5	4
CD184	2	2	2	2	2	2	3	2	2	3	3	3	2.5	2.5	2.5
CD185	2.8	2.5	2	3	2.5	2.5	3	3	3	4	4	4	3.5	4	3
CD194	2	2	2	2.5	2.5	2	2	2	2	4	4	4	3	3	2.5
CD195	3	2	2	2	2	2	2	2	2	3	3	3	2.5	3	2
CD196	3	2.5	2.5	3	3	3	2.5	2.5	3	3	3	4	3	3	2.5
CD197	3	2.2	2.5	3	2.5	3	3	4	3	5.5	5.5	5.5	4	4	3.5
CD223	3	2.5	2.5	3	3	3	2.8	3	3	4	4	4.5	4	3.5	3
CD270	3	2.5	2.5	3	3	2.5	3	3	3	4	4	4.5	3	3.5	3
CD272	2.5	2.5	2.5	3	3	2.5	2.5	2.5	3	3.5	3.5	4	3	3	2.5
CD273	2	2	2	3	3	2.5	2	3	3	4	4	4	3	3	2.8
CD274	2.5	2.5	2.5	3	3	2.5	3	3	3	4	4	4	3.8	3.5	3.5
CD278	3	2	2.5	2	2	2.5	4	2	3	4	3.8	4	3	3.2	3
CD279	2.5	2	2	2.5	2.5	2.4	2.5	3	3	4	4	4	3	4	3
CD294	2.5	2.5	2	3	3	3	2.5	3	3	4	4	4	3	3	2.7
CD314	3	2.2	3	3	3.2	3	4	3	3	4	4.5	5	4	4	4
CD335	3	2	2	3	2.5	2.5	4	3	3	4	4	4	3.5	2.8	4
CD336	3	3	3	3.5	3	3	4	3	3	4	4.5	4.5	3.5	4	4
CD337	3	2.5	3	3	3	3	4	4	4	5	5	5	4	4	5
CD366	2.5	2	2.5	3	3	2.7	3	3	3	4	4	4	4	4	4
B7-H4	3.5	3	3	3	3.5	3	4	3	3	4	4	4	4	4	4.5
HLA-A-B-C	1.5	1.5	1	1	1	1	1	1.5	2	2	2	2	2	1.5	1.5
HLA-DR	3.3	3	3.5	2.5	2.8	2.5	5	5	5	5	5	5	4	4	3.7
ITGB7	2	1.5	2	2	2	2	2	1.8	2	3	3	3	2	2.5	2.5
IgM	3	3	3	3	2	2	3	3	3	3	3	3	4	3.5	2.7
TIGIT	2	2	2	1.5	2	2	2	2	2	3	3	3	2.2	2	2.5
Podoplanin	4	3	3.5	3	3	3.5	2.5	3	2.5	4	4	4	3	2.5	3
TCR-a-b	3.5	3	3	4	4	4	3	3.2	4	5	5	5	4	3.8	4
TCR-Vd2	2.5	2	2	3	3	2.5	3	2	3	4	4	4	2.5	3	3
TCR-Va24-Ja18	2.5	2.5	2	3	3	3	3	2.5	3	4	4	4	3	3	3.5
TCR-Va7.2	3	3	3	3.5	3	3	3	3	3	4	4	4	3.7	4	3.5
