Antibody	PBMC_D3_untreated	PBMC_D3_skin_diss	PBMC_D3_tumor_diss
CD1c	2	2	2
CD1d	2	2	2
CD2	3	3	2.5
CD3	3	3.2	3
CD4_RPA-T4	2.5	2.5	2.5
CD5	2.2	2	2.5
CD8a_RPA-T8	2.2	3.2	2.5
CD10	2	2	2
CD11a	5	5	5
CD11b	4	4.7	4
CD11c	4.5	4.2	4.5
CD14	3	3	3
CD15	3	3	2.5
CD16	2.5	2.5	2
CD19	3	3	3
CD20	2.1	2	2.5
CD21	3	2.5	2.5
CD22	2	2	2
CD24	2	2	2
CD25	3.5	3	3
CD27	2	2	2
CD28	2.8	2.5	2.8
CD30	3	3	2.5
CD31	2.5	4	3
CD32	2.5	2.2	2.5
CD33	1.8	2	2
CD36	3	3	3.5
CD38	2	2.5	2
CD39	1.8	2	2
CD40	1.5	1.5	1.5
CD44	4	5.5	5.5
CD45	3.75	4	3.75
CD45RO	2	2	2
CD45RA	3	3	3
CD47	3	5	5
CD48	3.5	4	4
CD49f	2	2.5	2.5
CD56	3	3	3
CD57	5	5	5
CD58	2	2	2
CD62L	2.5	2	2
CD64	2	2	2
CD66b	2	2	2
CD69	1.5	2	2
CD70	2.5	2.5	2.5
CD71	2	2	2
CD73	2.5	2.5	2.5
CD80	2	2	2
CD81	3	2	2
CD86	2.5	2.2	2.5
CD90	3	2.5	2.5
CD95	1	1	1
CD96	2.5	2.5	2.5
CD103	2	2	2
CD107a	2.5	2.2	2.2
CD117	2	2	2
CD123	2	3	2
CD124	2	2.5	2
CD127	2.3	2	2
CD134	3	3	2.5
CD137	3	2	2
CD138	2	2	2
CD141	2.5	2.5	2.5
CD152	2	2	2
CD154	2	2	2
CD161	2	2	2
CD183	3	3	3
CD184	2	2	2
CD185	1.5	2	2
CD194	2	3	2
CD195	2	2	2
CD196	2	2	2
CD197	2.5	3	3
CD223	2	2.3	2
CD270	2.2	3	3
CD272	2	2	2
CD273	2	2	2
CD274	2	3	2
CD278	2	2.2	2.2
CD279	2	2	2
CD294	2	2	2
CD314	2.5	3.2	2.5
CD335	2	3	2
CD336	2	2.2	2
CD337	2.5	2	2.5
CD366	2	2.2	2
B7-H4	2.2	2.2	1
HLA-A-B-C	1	3	3
HLA-DR	3.2	3	3.2
ITGB7	2	3	1.8
IgM	2	2	2
TIGIT	2	2	2
Podoplanin	2	3	2
TCR-a-b	2.5	3	3
TCR-Vd2	3	3	3
TCR-Va24-Ja18	2	2.5	2
TCR-Va7.2	2	2.5	2
MelanA	2.5	2.5	2.5
AQP1	2	2	2
GLUT1	2	2	2
FAP	2	2	2
Tyrosinase	2	2	2
IGF1R	2	2	2
hashtag1	0	0	0
hashtag2	0	0	0
hashtag4	0	0	0
