Antibody	LN_MM_ctrl	LN_MM_1	LN_MM_2	LN_MM_3	LN_MM_4	PBMC_IT_ctrl	PBMC_IT_1	PBMC_IT_2	PBMC_IT_3
CD1c	0	0	0	0	0	2	2	2	2
CD1d	0	0	0	0	0	2	2	2	2
CD2	0	0	0	0	0	3	3	3	3
CD3	0	0	0	0	0	3	3	3	3
CD4_RPA-T4	2.1	2.1	2.1	2.1	2.1	2.5	2.5	2.5	2.5
CD5	1	1	1	1	1	2.2	2.2	2.2	2.2
CD8a_RPA-T8	0	0	0	0	0	2.2	2.2	2.2	2.2
CD10	2.5	2.5	2.5	2.5	2.5	2	2	2	2
CD11a	0	0	0	0	0	5	5	5	5
CD11b	0	0	0	0	0	4	4	4	4
CD11c	2.6	2.6	2.6	2.6	2.6	4.5	4.5	4.5	4.5
CD14	0	0	0	0	0	3	3	3	3
CD15	2	2	2	2	2	3	3	3	3
CD16	2	2	2	2	2	2.5	2.5	2.5	2.5
CD19	2.5	2.5	2.5	2.5	2.5	3	3	3	3
CD20	1.3	1.3	1.3	1.3	1.3	2.1	2.1	2.1	2.1
CD21	1.6	1.6	1.6	1.6	1.6	3	3	3	3
CD22	0	0	0	0	0	2	2	2	2
CD24	0	0	0	0	0	2	2	2	2
CD25	0	0	0	0	0	3.5	3.5	3.5	3.5
CD27	2	2	2	2	2	2	2	2	2
CD28	2	2	2	2	2	2.8	2.8	2.8	2.8
CD30	2	2	2	2	2	3	3	3	3
CD31	0	0	0	0	0	2.5	2.5	2.5	2.5
CD32	0	0	0	0	0	2.5	2.5	2.5	2.5
CD33	0	0	0	0	0	1.8	1.8	1.8	1.8
CD36	0	0	0	0	0	3	3	3	3
CD38	0	0	0	0	0	2	2	2	2
CD39	0	0	0	0	0	1.8	1.8	1.8	1.8
CD40	0	0	0	0	0	1.5	1.5	1.5	1.5
CD44	0	0	0	0	0	4	4	4	4
CD45	0	0	0	0	0	3.75	3.75	3.75	3.75
CD45RO	2.2	2.2	2.2	2.2	2.2	2	2	2	2
CD45RA	2	2	2	2	2	3	3	3	3
CD47	0	0	0	0	0	3	3	3	3
CD48	0	0	0	0	0	3.5	3.5	3.5	3.5
CD49f	0	0	0	0	0	2	2	2	2
CD56	0	0	0	0	0	3	3	3	3
CD57	2.4	2.4	2.4	2.4	2.4	5	5	5	5
CD58	0	0	0	0	0	2	2	2	2
CD62L	0	0	0	0	0	2.5	2.5	2.5	2.5
CD64	2.7	2.7	2.7	2.7	2.7	2	2	2	2
CD66b	0	0	0	0	0	2	2	2	2
CD69	0	0	0	0	0	1.5	1.5	1.5	1.5
CD70	2.5	2.5	2.5	2.5	2.5	2.5	2.5	2.5	2.5
CD71	0	0	0	0	0	2	2	2	2
CD73	0	0	0	0	0	2.5	2.5	2.5	2.5
CD80	0	0	0	0	0	2	2	2	2
CD81	2	2	2	2	2	3	3	3	3
CD86	0	0	0	0	0	2.5	2.5	2.5	2.5
CD90	2	2	2	2	2	3	3	3	3
CD95	0	0	0	0	0	1	1	1	1
CD96	0	0	0	0	0	2.5	2.5	2.5	2.5
CD103	0	0	0	0	0	2	2	2	2
CD107a	0	0	0	0	0	2.5	2.5	2.5	2.5
CD117	0	0	0	0	0	2	2	2	2
CD123	0	0	0	0	0	2	2	2	2
CD124	0	0	0	0	0	2	2	2	2
CD127	0	0	0	0	0	2.3	2.3	2.3	2.3
CD134	2	2	2	2	2	3	3	3	3
CD137	0	0	0	0	0	3	3	3	3
CD138	2	2	2	2	2	2	2	2	2
CD141	0	0	0	0	0	2.5	2.5	2.5	2.5
CD152	0	0	0	0	0	2	2	2	2
CD154	0	0	0	0	0	2	2	2	2
CD161	0	0	0	0	0	2	2	2	2
CD183	0	0	0	0	0	3	3	3	3
CD184	0	0	0	0	0	2	2	2	2
CD185	0	0	0	0	0	1.5	1.5	1.5	1.5
CD194	0	0	0	0	0	2	2	2	2
CD195	0	0	0	0	0	2	2	2	2
CD196	0	0	0	0	0	2	2	2	2
CD197	0	0	0	0	0	2.5	2.5	2.5	2.5
CD223	2	2	2	2	2	2	2	2	2
CD270	0	0	0	0	0	2.2	2.2	2.2	2.2
CD272	0	0	0	0	0	2	2	2	2
CD273	0	0	0	0	0	2	2	2	2
CD274	0	0	0	0	0	2	2	2	2
CD278	2	2	2	2	2	2	2	2	2
CD279	2.2	2.2	2.2	2.2	2.2	2	2	2	2
CD294	2	2	2	2	2	2	2	2	2
CD314	0	0	0	0	0	2.5	2.5	2.5	2.5
CD335	0	0	0	0	0	2	2	2	2
CD336	2	2	2	2	2	2	2	2	2
CD337	0	0	0	0	0	2.5	2.5	2.5	2.5
CD366	0	0	0	0	0	2	2	2	2
B7-H4	0	0	0	0	0	2.2	2.2	2.2	2.2
HLA-A-B-C	0	0	0	0	0	1	1	1	1
HLA-DR	0	0	0	0	0	3.2	3.2	3.2	3.2
ITGB7	2.5	2.5	2.5	2.5	2.5	2	2	2	2
IgM	0	0	0	0	0	2	2	2	2
TIGIT	0	0	0	0	0	2	2	2	2
Podoplanin	1	1	1	1	1	2	2	2	2
TCRa_b	0	0	0	0	0	2.5	2.5	2.5	2.5
TCRVd2	0	0	0	0	0	3	3	3	3
TCRVa24-Ja18	0	0	0	0	0	2	2	2	2
TCRVa7.2	0	0	0	0	0	2	2	2	2
MelanA	2.5	2.5	2.5	2.5	2.5	2.5	2.5	2.5	2.5
AQP1	0	0	0	0	0	2	2	2	2
GLUT1	0	0	0	0	0	2	2	2	2
FAP	0	0	0	0	0	2	2	2	2
Tyrosinase	1	1	1	1	1	2	2	2	2
IGF1R	1	1	1	1	1	2	2	2	2
CD275	0	0	0	0	0	0	0	0	0
CD4_SK3	0	0	0	0	0	0	0	0	0
CD8_SK1	0	0	0	0	0	0	0	0	0
CD269	0	0	0	0	0	0	0	0	0
CD326	0	0	0	0	0	0	0	0	0
CD146	0	0	0	0	0	0	0	0	0
CD324	0	0	0	0	0	0	0	0	0
CD206	0	0	0	0	0	0	0	0	0
CD163	0	0	0	0	0	0	0	0	0
CD83	0	0	0	0	0	0	0	0	0
CD303	0	0	0	0	0	0	0	0	0
CD304	0	0	0	0	0	0	0	0	0
CD133	0	0	0	0	0	0	0	0	0
CD209	0	0	0	0	0	0	0	0	0
MAC-2	0	0	0	0	0	0	0	0	0
Podocalyxin	0	0	0	0	0	0	0	0	0
Hashtag_2	0	0	0	0	0	0	0	0	0
