{
    "inputOutput":{
        "input_fastqs":"/cluster/project/nexus/phrt/levesque_melanoma_2019/data/20191016/primaryMelanoma/fastqs_GEX/",
        "input_fastqc":"/cluster/project/nexus/phrt/levesque_melanoma_2019/data/20191016/primaryMelanoma/analysis_M181024/fastqc",
        "analysis_output_dir":"/cluster/project/nexus/phrt/levesque_melanoma_2019/data/20191016/primaryMelanoma/analysis_M181024/",
        "analysis_temp_dir":"/cluster/project/nexus/phrt/levesque_melanoma_2019/data/20191016/primaryMelanoma/snake_temp/",
        "sample_map":"/cluster/project/nexus/phrt/levesque_melanoma_2019/data/20191016/primaryMelanoma/snake_analysis_files_M181024/auto_sample_map.tsv",
        "malignant_cell_type":"melanoma",
        "sequencing_runName":"BSSE_QGF_128888_HGK7KDRXX_1_Primary_Melanoma_GEX_A1"
    },
    "resources":{
        "pathwayDB":"/cluster/project/nexus/phrt/levesque_melanoma_2019/git/tupro-pipeline/required_files/hallmark_human_converted.gmt",
        "drugList":"/cluster/project/nexus/phrt/levesque_melanoma_2019/git/tupro-pipeline/required_files/melanoma/melanoma_drug_list_converted_corrected.txt",
        "reference_transcriptome":"/cluster/work/bewi/ngs/projects/tumorProfiler/data/GRCh38/refdata-cellranger-GRCh38-1.2.0",
        "transcriptome_code":"GRCh38",
        "derived_suffixList":"/cluster/project/nexus/phrt/levesque_melanoma_2019/git/tupro-pipeline/required_files/scRNA/scRNA__derived.txt",
        "celltype_lists":"/cluster/project/nexus/phrt/levesque_melanoma_2019/git/tupro-pipeline/required_files/melanoma/celltype_list_melanoma.gmx ",
        "celltype_config":"/cluster/project/nexus/phrt/levesque_melanoma_2019/git/tupro-pipeline/required_files/melanoma/celltype_config_melanoma.tsv",
        "colour_config":"/cluster/project/nexus/phrt/levesque_melanoma_2019/git/tupro-pipeline/required_files/melanoma/colour_config_melanoma.txt",
        "previous_samples":"/cluster/project/nexus/phrt/levesque_melanoma_2019/git/tupro-pipeline/required_files/melanoma/previous_mel_samples_cell_types.txt",
        "previous_samples_counts":"/cluster/project/nexus/phrt/levesque_melanoma_2019/git/tupro-pipeline/required_files/melanoma/previous_mel_samples_RDS.txt",
        "genesets":"/cluster/project/nexus/phrt/levesque_melanoma_2019/git/tupro-pipeline/required_files/melanoma/hallmark_human_MAPK_and_filtered.gmt ",
        "priority_genes":"/cluster/project/nexus/phrt/levesque_melanoma_2019/git/mel_required/priority_genes_melanoma.txt "
    },
    "tools":{
        "cellranger_count":{
            "call":"/cluster/project/nexus/utilities/sharedPrograms/cellranger/cellranger-3.1.0/cellranger",
            "local_cores":24,
            "scratch":"20000",
            "mem":"6000",
            "time":"1440",
            "threads":24,
            "variousParams":"--expect-cells 10000 ",
            "cellranger_sampleName":"M181024"
        },
        "cellranger_count_novaSeq":{
            "call":"cellranger",
            "local_cores":24,
            "scratch":"20000",
            "mem":"6000",
            "time":"1440",
            "threads":24,
            "variousParams":""
        },
        "remove_index_hopping":{
            "call":"/cluster/project/nexus/utilities/sharedPrograms/R-3.6.0/bin/Rscript /cluster/project/nexus/phrt/levesque_melanoma_2019/git/tupro-pipeline/scripts//clean_and_filter_swapped.R",
            "scratch":"20000",
            "mem":"20000",
            "time":"1440",
            "fdr_thres":0.01,
            "libsize_thres":1000,
            "threads":24
        },
        "prepare_indexHopping_files":{
            "call":"",
            "scratch":"2000",
            "mem":"200",
            "time":"200",
            "threads":1
        },
        "add_gene_names":{
            "call":"Rscript /cluster/project/nexus/phrt/levesque_melanoma_2019/git/tupro-pipeline/scripts//map_geneSymbols_indexHopping.R",
            "scratch":"2000",
            "mem":"8000",
            "time":"400",
            "threads":4
        },
        "create_symlink":{
            "call":"",
            "scratch":"2000",
            "mem":"200",
            "time":"200",
            "threads":1
        },
        "create_hd5":{
            "call":"/cluster/work/bewi/ngs/projects/tumorProfiler/code/installations/snakemake_v5.1.4/bin/python /cluster/project/nexus/phrt/levesque_melanoma_2019/git/tupro-pipeline/scripts//create_hdf5.py ",
            "scratch":"2000",
            "mem":"1000",
            "time":"100",
            "threads":4
        },
        "filter_genes_and_cells":{
            "call":"Rscript /cluster/project/nexus/linda/git_eth/levesque_melanoma_2019/scripts/filter_genes_and_cells.R --barcodes_keep /cluster/project/nexus/phrt/levesque_melanoma_2019/data/20191016/primaryMelanoma/analysis_pooledSample/hashingAnalysis/primaryMelanoma.tag4.barcodes_singlets.txt",
            "nmads_fractionMT":"100",
            "nmads_NODG":"100",
            "threshold_NODG":"400",
            "threshold_fractionMT":"0.5",
            "genomeVersion":"GRCh38",
            "scratch":"2000",
            "mem":"8000",
            "time":"400",
            "threads":4
        },
        "sctransform_preprocessing":{
            "call":"Rscript /cluster/project/nexus/phrt/levesque_melanoma_2019/git/tupro-pipeline/scripts//sctransform_preprocessing.R ",
            "scratch":"2000",
            "mem":"4000",
            "time":"400",
            "threads":4,
            "number_genes":"2000",
            "min_var":"1.5",
            "n_nn":"30"
        },
        "clustering":{
            "phenograph":{
                "call":"/cluster/work/bewi/ngs/projects/tumorProfiler/code/installations/snakemake_v5.1.4/bin/python /cluster/project/nexus/phrt/levesque_melanoma_2019/git/tupro-pipeline/scripts//apply_phenograph.py ",
                "n_neighbours":30,
                "log_normalize":false,
                "min_cluster_size":20,
                "scratch":"2000",
                "mem":"1000",
                "time":"400",
                "threads":8
            }
        },
        "prepare_celltyping":{
            "call":"Rscript /cluster/project/nexus/phrt/levesque_melanoma_2019/git/tupro-pipeline/scripts//prepare_celltyping.R ",
            "scratch":"2000",
            "mem":"4000",
            "time":"200",
            "threads":4
        },
        "cell_type_classification":{
            "call":"Rscript /cluster/project/nexus/phrt/levesque_melanoma_2019/git/tupro-pipeline/scripts//celltyping.r ",
            "scratch":"2000",
            "mem":"4000",
            "time":"200",
            "threads":4
        },
        "remove_atypical":{
            "call":"Rscript /cluster/project/nexus/phrt/levesque_melanoma_2019/git/tupro-pipeline/scripts//filter_out_atypical_cells.R ",
            "scratch":"2000",
            "mem":"4000",
            "time":"200",
            "threads":4,
            "threshold_filter":"5",
            "min_threshold":"5",
            "threshold_type":"percentage_cells"
        },
        "gsva":{
            "call":"Rscript /cluster/project/nexus/phrt/levesque_melanoma_2019/git/tupro-pipeline/scripts//celltyping_gsva.r ",
            "scratch":"2000",
            "mem":"4000",
            "time":"200",
            "threads":4
        },
        "plotting":{
            "call":"Rscript /cluster/project/nexus/phrt/levesque_melanoma_2019/git/tupro-pipeline/scripts//scRNA_pipeline_plotting.R ",
            "scratch":"2000",
            "mem":"4000",
            "time":"200",
            "threads":4
        },
        "diff_exp":{
	     "call":"Rscript /cluster/work/bewi/ngs/projects/tumorProfiler/code/all/scTumorProfiler/scripts/apply_DE_analysis.R",
            "scratch":"2000",
            "mem":"10000",
            "time":"200",
            "threads":1

        },
        "gene_exp":{
            "call":"Rscript /cluster/project/nexus/phrt/levesque_melanoma_2019/git/tupro-pipeline/scripts//get_cluster_gene_expression.R ",
            "scratch":"2000",
            "mem":"8000",
            "time":"200",
            "threads":1,
            "threshold_sample":"20",
            "type_sample":"number_cells"
        },
        "parseAndFilter_DEgenes":{
            "call":"/cluster/work/bewi/ngs/projects/tumorProfiler/code/installations/snakemake_v5.1.4/bin/python /cluster/project/nexus/phrt/levesque_melanoma_2019/git/tupro-pipeline/scripts//parseAndFilter_DEgenes.py ",
            "scratch":"2000",
            "mem":"300",
            "time":"200",
            "threads":1,
            "variousParams":"0.01 gene_names padj logFC z 1"
        },
        "annotateClinical":{
            "call":"/cluster/work/bewi/ngs/projects/tumorProfiler/code/installations/snakemake_v5.1.4/bin/python /cluster/project/nexus/phrt/levesque_melanoma_2019/git/tupro-pipeline/scripts//annotateWithClinicalInfo.py ",
            "scratch":"2000",
            "mem":"200",
            "time":"200",
            "threads":1,
            "variousParams":"--colName_gene gene_names"
        },
        "queryDGIDB":{
            "call":"Rscript /cluster/project/nexus/phrt/levesque_melanoma_2019/git/tupro-pipeline/scripts//Query_DGIdb_Script_v1.r ",
            "scratch":"2000",
            "mem":"200",
            "time":"239",
            "threads":1,
            "colName_genes":"gene_names",
            "minDatabaseNum":"4"
        },
        "geneSetEnrichment":{
            "call":"Rscript /cluster/project/nexus/phrt/levesque_melanoma_2019/git/tupro-pipeline/scripts//GeneSetEnrichmentAnalysis.R ",
            "scratch":"2000",
            "mem":"200",
            "time":"200",
            "threads":4,
            "variousParams":"z"
        },
        "plotGeneSetEnrichment":{
            "call":"Rscript /cluster/project/nexus/phrt/levesque_melanoma_2019/git/tupro-pipeline/scripts//plot_genesets_heatmap.R ",
            "scratch":"2000",
            "mem":"200",
            "time":"200",
            "threads":4,
            "variousParams":""
        },
        "queryClinicalTrials":{
            "call":"/cluster/work/bewi/ngs/projects/tumorProfiler/code/installations/snakemake_v5.1.4/bin/python /cluster/project/nexus/phrt/levesque_melanoma_2019/git/tupro-pipeline/scripts//queryClinicalTrials.py ",
            "scratch":"3000",
            "mem":"500",
            "time":"800",
            "threads":8,
            "whiteList":"melanoma,solid tumor",
            "blackList":""
        },
        "downloadClinicalTrials":{
            "scratch":"5000",
            "mem":"500",
            "time":"1200",
            "threads":12,
            "cancerType":"cancer"
        },
        "cellPercentInCluster":{
            "call":"/cluster/work/bewi/ngs/projects/tumorProfiler/code/installations/snakemake_v5.1.4/bin/python /cluster/project/nexus/phrt/levesque_melanoma_2019/git/tupro-pipeline/scripts//count_cells_in_clusters.py ",
            "scratch":"2000",
            "mem":"200",
            "time":"200",
            "threads":1,
            "variousParams":"--malignant melanoma"
        },
        "assemble_non_malignant_reference":{
            "call":"Rscript /cluster/project/nexus/phrt/levesque_melanoma_2019/git/tupro-pipeline/scripts//assemble_library_non_malignant_cells.R ",
            "scratch":"2000",
            "mem":"15000",
            "time":"300",
            "threads":4,
            "hdf5_dir":"/cluster/project/nexus/phrt/levesque_melanoma_2019/git/tupro-pipeline/required_files/melanoma/non_malignant_cohort_hdf5_links/",
            "celltype_dir":"/cluster/project/nexus/phrt/levesque_melanoma_2019/git/tupro-pipeline/required_files/melanoma/non_malignant_cohort_celltype_classif_links/",
            "non_malignant_types":"/cluster/project/nexus/phrt/levesque_melanoma_2019/git/tupro-pipeline/required_files/melanoma/list_non_malignant_celltypes_melanoma.txt"
        },
        "plot_tSNE_nonmalignant":{
            "call":"Rscript /cluster/project/nexus/phrt/levesque_melanoma_2019/git/tupro-pipeline/scripts//plot_tSNEs_non_malignant_cell_libraries.R ",
            "scratch":"2000",
            "mem":"32000",
            "time":"200",
            "threads":1,
            "variousParams":""
        },
        "parseDgidbTrialsTable_for_minSetCover":{
            "call":"/cluster/work/bewi/ngs/projects/tumorProfiler/code/installations/snakemake_v5.1.4/bin/python /cluster/project/nexus/phrt/levesque_melanoma_2019/git/tupro-pipeline/scripts//parseDgidbTrialsTable_for_minSetCover.py ",
            "scratch":"2000",
            "mem":"200",
            "time":"200",
            "threads":1,
            "colName_DGIDB_score":"Score",
            "colName_clinTrial":"ClinicalTrials"
        },
        "findminSetCover":{
            "call":"/cluster/work/bewi/ngs/projects/tumorProfiler/code/installations/snakemake_v5.1.4/bin/python /cluster/project/nexus/phrt/levesque_melanoma_2019/git/tupro-pipeline/scripts//minSetCover.py ",
            "scratch":"2000",
            "mem":"200",
            "time":"200",
            "threads":1,
            "variousParams":"--considerClusterSize no"
        },
        "filterDrugs":{
            "call":"/cluster/work/bewi/ngs/projects/tumorProfiler/code/installations/snakemake_v5.1.4/bin/python /cluster/project/nexus/phrt/levesque_melanoma_2019/git/tupro-pipeline/scripts//filter_by_drug_list.py ",
            "scratch":"2000",
            "mem":"200",
            "time":"200",
            "threads":1,
            "variousParams":""
        },
        "preprocessForUpSetR":{
            "call":"/cluster/work/bewi/ngs/projects/tumorProfiler/code/installations/snakemake_v5.1.4/bin/python /cluster/project/nexus/phrt/levesque_melanoma_2019/git/tupro-pipeline/scripts//preprocess_parsedTrialsTable_forUpsetplot.py ",
            "scratch":"2000",
            "mem":"200",
            "time":"200",
            "threads":1
        },
        "plotUpSetR":{
            "call":"Rscript /cluster/project/nexus/phrt/levesque_melanoma_2019/git/tupro-pipeline/scripts//generate_upsetplot_drugs_targeting_clusters.R",
            "scratch":"2000",
            "mem":"200",
            "time":"200",
            "threads":1,
            "variousParams":"--nintersects 20 --nsets 100"
        },
        "organize_results_copy":{
            "call":"sh /cluster/project/nexus/phrt/levesque_melanoma_2019/git/tupro-pipeline/scripts//prepare_results_upload.sh ",
            "scratch":"2000",
            "mem":"1000",
            "time":"400",
            "threads":4
        },
        "generate_qc_plots":{
            "call":"Rscript /cluster/project/nexus/phrt/levesque_melanoma_2019/git/tupro-pipeline/scripts//generate_QC_plots.R ",
            "scratch":"2000",
            "mem":"4000",
            "time":"400",
            "threads":4
        },
        "generate_cell_type_boxplot":{
            "call":"Rscript /cluster/project/nexus/phrt/levesque_melanoma_2019/git/tupro-pipeline/scripts//generate_boxplot_fractions_celltypes.R ",
            "scratch":"2000",
            "mem":"300",
            "time":"200",
            "threads":4
        },
        "sample_integration":{
            "call":"Rscript /cluster//project/nexus/phrt/levesque_melanoma_2019/git/tupro-pipeline/scripts/sample_integration.R ",
            "scratch":"2000",
            "mem":"16000",
            "time":"200",
            "threads":4
        },
        "show_drugPrediction_on_clones":{
            "call":"Rscript /cluster/project/nexus/phrt/levesque_melanoma_2019/git/tupro-pipeline/scripts//show_drugPrediction_on_clones.R ",
            "scratch":"2000",
            "mem":"4000",
            "time":"200",
            "threads":4,
            "variousParams":"--drugPredEnd 'clinicalAnnotation.civic.txt' --name_DGIDB 'DGIDB-drugs(Score,Type)' --name_CIVIC 'CIViC_Drug_Support'"
        },
        "get_full_druglist_to_subclones":{
            "call":"python /cluster/project/nexus/phrt/levesque_melanoma_2019/git/tupro-pipeline/scripts//get_full_druglist_to_subclones_assignm.py ",
            "scratch":"2000",
            "mem":"1000",
            "time":"400",
            "threads":4
        }
    }
}
