Building DAG of jobs...
Using shell: /usr/bin/bash
Provided cluster nodes: 100
Job counts:
	count	jobs
	1	cell_type_classification
	1	diff_exp_genes
	1	filter_genes_and_cells
	1	gene_exp
	1	generate_cell_type_boxplot
	1	generate_qc_plots
	1	gsva
	1	phenograph
	1	plotting
	1	prepare_celltyping
	1	remove_atypical
	1	sample_integration
	1	scTranscriptomics
	1	sctransform_preprocessing
	14

rule filter_genes_and_cells:
    input: /cluster/project/nexus/phrt/levesque_melanoma_2019/data/20191016/primaryMelanoma/analysis_M181024/rawCounts/M181024.h5
    output: /cluster/project/nexus/phrt/levesque_melanoma_2019/data/20191016/primaryMelanoma/analysis_M181024/filteredCounts/M181024.genes_cells_filtered.h5
    jobid: 11
    benchmark: /cluster/project/nexus/phrt/levesque_melanoma_2019/data/20191016/primaryMelanoma/analysis_M181024/filteredCounts/M181024.filter_genes_and_cells.benchmark
    wildcards: sample=M181024
    threads: 4

Rscript /cluster/project/nexus/linda/git_eth/levesque_melanoma_2019/scripts/filter_genes_and_cells.R --barcodes_keep /cluster/project/nexus/phrt/levesque_melanoma_2019/data/20191016/primaryMelanoma/analysis_pooledSample/hashingAnalysis/primaryMelanoma.tag4.barcodes_singlets.txt --hdf5File /cluster/project/nexus/phrt/levesque_melanoma_2019/data/20191016/primaryMelanoma/analysis_M181024/rawCounts/M181024.h5 --nmads_NODG 100 --nmads_fractionMT 100 --threshold_NODG 400 --threshold_fractionMT 0.5 --genomeVersion GRCh38 --outDir /cluster/project/nexus/phrt/levesque_melanoma_2019/data/20191016/primaryMelanoma/analysis_M181024/filteredCounts/
Generic job.
Submitted job 11 with external jobid 'Job <103426952> is submitted to queue <normal.24h>.'.
    Error in rule filter_genes_and_cells:
        jobid: 11
        output: /cluster/project/nexus/phrt/levesque_melanoma_2019/data/20191016/primaryMelanoma/analysis_M181024/filteredCounts/M181024.genes_cells_filtered.h5

Job failed, going on with independent jobs.
Exiting because a job execution failed. Look above for error message
Complete log: /cluster/project/nexus/phrt/levesque_melanoma_2019/data/20191016/primaryMelanoma/snake_analysis_files_M181024/.snakemake/log/2019-10-28T094830.059594.snakemake.log
Building DAG of jobs...
Using shell: /usr/bin/bash
Provided cluster nodes: 100
Job counts:
	count	jobs
	1	cell_type_classification
	1	diff_exp_genes
	1	gene_exp
	1	generate_cell_type_boxplot
	1	generate_qc_plots
	1	gsva
	1	phenograph
	1	plotting
	1	prepare_celltyping
	1	remove_atypical
	1	sample_integration
	1	scTranscriptomics
	1	sctransform_preprocessing
	13

rule sctransform_preprocessing:
    input: /cluster/project/nexus/phrt/levesque_melanoma_2019/data/20191016/primaryMelanoma/analysis_M181024/filteredCounts/M181024.genes_cells_filtered.h5
    output: /cluster/project/nexus/phrt/levesque_melanoma_2019/data/20191016/primaryMelanoma/analysis_M181024/counts_corrected/M181024.genes_cells_filtered.corrected.RDS, /cluster/project/nexus/phrt/levesque_melanoma_2019/data/20191016/primaryMelanoma/analysis_M181024/counts_corrected/M181024.genes_cells_filtered.corrected.variable_genes.h5
    jobid: 15
    benchmark: /cluster/project/nexus/phrt/levesque_melanoma_2019/data/20191016/primaryMelanoma/analysis_M181024/counts_corrected/M181024.genes_cells_filtered.corrected.benchmark
    wildcards: sample=M181024.genes_cells_filtered
    threads: 4

Rscript /cluster/project/nexus/phrt/levesque_melanoma_2019/git/tupro-pipeline/scripts//sctransform_preprocessing.R  --inHDF5 /cluster/project/nexus/phrt/levesque_melanoma_2019/data/20191016/primaryMelanoma/analysis_M181024/filteredCounts/M181024.genes_cells_filtered.h5 --sample M181024.genes_cells_filtered --number_genes 2000 --min_var 1.5 --n_nn 30 --outdir /cluster/project/nexus/phrt/levesque_melanoma_2019/data/20191016/primaryMelanoma/analysis_M181024/counts_corrected/ 
Generic job.
Submitted job 15 with external jobid 'Job <103427116> is submitted to queue <normal.24h>.'.

rule generate_qc_plots:
    input: /cluster/project/nexus/phrt/levesque_melanoma_2019/data/20191016/primaryMelanoma/analysis_M181024/filteredCounts/M181024.genes_cells_filtered.h5
    output: /cluster/project/nexus/phrt/levesque_melanoma_2019/data/20191016/primaryMelanoma/analysis_M181024/filteredCounts/M181024.genes_cells_filtered.h5.histogram_library_sizes.png
    jobid: 3
    benchmark: /cluster/project/nexus/phrt/levesque_melanoma_2019/data/20191016/primaryMelanoma/analysis_M181024/filteredCounts/M181024.genes_cells_filtered.generate_qc_plots.benchmark
    wildcards: sample=/cluster/project/nexus/phrt/levesque_melanoma_2019/data/20191016/primaryMelanoma/analysis_M181024/filteredCounts/M181024.genes_cells_filtered
    threads: 4

Rscript /cluster/project/nexus/phrt/levesque_melanoma_2019/git/tupro-pipeline/scripts//generate_QC_plots.R  --hdf5File /cluster/project/nexus/phrt/levesque_melanoma_2019/data/20191016/primaryMelanoma/analysis_M181024/filteredCounts/M181024.genes_cells_filtered.h5 
Generic job.
Submitted job 3 with external jobid 'Job <103427117> is submitted to queue <normal.24h>.'.
Finished job 3.
1 of 13 steps (8%) done
Finished job 15.
2 of 13 steps (15%) done

rule phenograph:
    input: /cluster/project/nexus/phrt/levesque_melanoma_2019/data/20191016/primaryMelanoma/analysis_M181024/counts_corrected/M181024.genes_cells_filtered.corrected.variable_genes.h5
    output: /cluster/project/nexus/phrt/levesque_melanoma_2019/data/20191016/primaryMelanoma/analysis_M181024/clustering/M181024.genes_cells_filtered.corrected.clusters_phenograph.csv, /cluster/project/nexus/phrt/levesque_melanoma_2019/data/20191016/primaryMelanoma/analysis_M181024/clustering/M181024.genes_cells_filtered.corrected.distance_matrix.tsv, /cluster/project/nexus/phrt/levesque_melanoma_2019/data/20191016/primaryMelanoma/analysis_M181024/clustering/M181024.genes_cells_filtered.corrected.modularity_score.txt
    jobid: 16
    benchmark: /cluster/project/nexus/phrt/levesque_melanoma_2019/data/20191016/primaryMelanoma/analysis_M181024/clustering/M181024.genes_cells_filtered.corrected.phenograph.benchmark
    wildcards: sample=M181024.genes_cells_filtered.corrected
    threads: 8

/cluster/work/bewi/ngs/projects/tumorProfiler/code/installations/snakemake_v5.1.4/bin/python /cluster/project/nexus/phrt/levesque_melanoma_2019/git/tupro-pipeline/scripts//apply_phenograph.py  /cluster/project/nexus/phrt/levesque_melanoma_2019/data/20191016/primaryMelanoma/analysis_M181024/counts_corrected/M181024.genes_cells_filtered.corrected.variable_genes.h5 /cluster/project/nexus/phrt/levesque_melanoma_2019/data/20191016/primaryMelanoma/analysis_M181024/clustering/M181024.genes_cells_filtered.corrected.clusters_phenograph.csv /cluster/project/nexus/phrt/levesque_melanoma_2019/data/20191016/primaryMelanoma/analysis_M181024/clustering/M181024.genes_cells_filtered.corrected.distance_matrix.tsv /cluster/project/nexus/phrt/levesque_melanoma_2019/data/20191016/primaryMelanoma/analysis_M181024/clustering/M181024.genes_cells_filtered.corrected.modularity_score.txt  30  20  -l False --n_threads 8
Generic job.
Submitted job 16 with external jobid 'Job <103427158> is submitted to queue <normal.24h>.'.
Finished job 16.
3 of 13 steps (23%) done

rule prepare_celltyping:
    input: /cluster/project/nexus/phrt/levesque_melanoma_2019/data/20191016/primaryMelanoma/analysis_M181024/counts_corrected/M181024.genes_cells_filtered.corrected.RDS, /cluster/project/nexus/phrt/levesque_melanoma_2019/data/20191016/primaryMelanoma/analysis_M181024/clustering/M181024.genes_cells_filtered.corrected.clusters_phenograph.csv, /cluster/project/nexus/phrt/levesque_melanoma_2019/data/20191016/primaryMelanoma/analysis_M181024/clustering/M181024.genes_cells_filtered.corrected.distance_matrix.tsv, /cluster/project/nexus/phrt/levesque_melanoma_2019/data/20191016/primaryMelanoma/analysis_M181024/clustering/M181024.genes_cells_filtered.corrected.modularity_score.txt
    output: /cluster/project/nexus/phrt/levesque_melanoma_2019/data/20191016/primaryMelanoma/analysis_M181024/prep_celltyping/M181024.genes_cells_filtered.corrected.RDS
    jobid: 14
    benchmark: /cluster/project/nexus/phrt/levesque_melanoma_2019/data/20191016/primaryMelanoma/analysis_M181024/prep_celltyping/M181024.genes_cells_filtered.corrected.prepare_celltyping.benchmark
    wildcards: sample=M181024.genes_cells_filtered.corrected
    threads: 4

Rscript /cluster/project/nexus/phrt/levesque_melanoma_2019/git/tupro-pipeline/scripts//prepare_celltyping.R  --in_sce /cluster/project/nexus/phrt/levesque_melanoma_2019/data/20191016/primaryMelanoma/analysis_M181024/counts_corrected/M181024.genes_cells_filtered.corrected.RDS --phenograph_cluster /cluster/project/nexus/phrt/levesque_melanoma_2019/data/20191016/primaryMelanoma/analysis_M181024/clustering/M181024.genes_cells_filtered.corrected.clusters_phenograph.csv --outputDirec /cluster/project/nexus/phrt/levesque_melanoma_2019/data/20191016/primaryMelanoma/analysis_M181024/prep_celltyping/ --sampleName M181024.genes_cells_filtered.corrected --distanceMatrix /cluster/project/nexus/phrt/levesque_melanoma_2019/data/20191016/primaryMelanoma/analysis_M181024/clustering/M181024.genes_cells_filtered.corrected.distance_matrix.tsv --modularity_score /cluster/project/nexus/phrt/levesque_melanoma_2019/data/20191016/primaryMelanoma/analysis_M181024/clustering/M181024.genes_cells_filtered.corrected.modularity_score.txt 
Generic job.
Submitted job 14 with external jobid 'Job <103427166> is submitted to queue <normal.4h>.'.
Finished job 14.
4 of 13 steps (31%) done

rule cell_type_classification:
    input: /cluster/project/nexus/phrt/levesque_melanoma_2019/data/20191016/primaryMelanoma/analysis_M181024/prep_celltyping/M181024.genes_cells_filtered.corrected.RDS
    output: /cluster/project/nexus/phrt/levesque_melanoma_2019/data/20191016/primaryMelanoma/analysis_M181024/celltype_classification/M181024.genes_cells_filtered.corrected.phenograph_celltype_association.txt, /cluster/project/nexus/phrt/levesque_melanoma_2019/data/20191016/primaryMelanoma/analysis_M181024/celltype_classification/M181024.genes_cells_filtered.corrected.RDS
    jobid: 12
    benchmark: /cluster/project/nexus/phrt/levesque_melanoma_2019/data/20191016/primaryMelanoma/analysis_M181024/celltype_classification/M181024.genes_cells_filtered.corrected.cell_type_classification.benchmark
    wildcards: sample=M181024.genes_cells_filtered.corrected
    threads: 4

Rscript /cluster/project/nexus/phrt/levesque_melanoma_2019/git/tupro-pipeline/scripts//celltyping.r  --SCE /cluster/project/nexus/phrt/levesque_melanoma_2019/data/20191016/primaryMelanoma/analysis_M181024/prep_celltyping/M181024.genes_cells_filtered.corrected.RDS --celltype_lists /cluster/project/nexus/phrt/levesque_melanoma_2019/git/tupro-pipeline/required_files/melanoma/celltype_list_melanoma.gmx  --celltype_config /cluster/project/nexus/phrt/levesque_melanoma_2019/git/tupro-pipeline/required_files/melanoma/celltype_config_melanoma.tsv --outputDirec /cluster/project/nexus/phrt/levesque_melanoma_2019/data/20191016/primaryMelanoma/analysis_M181024/celltype_classification/ --sampleName M181024.genes_cells_filtered.corrected 
Generic job.
Submitted job 12 with external jobid 'Job <103427245> is submitted to queue <normal.4h>.'.
Finished job 12.
5 of 13 steps (38%) done

rule remove_atypical:
    input: /cluster/project/nexus/phrt/levesque_melanoma_2019/data/20191016/primaryMelanoma/analysis_M181024/celltype_classification/M181024.genes_cells_filtered.corrected.RDS, /cluster/project/nexus/phrt/levesque_melanoma_2019/data/20191016/primaryMelanoma/analysis_M181024/celltype_classification/M181024.genes_cells_filtered.corrected.phenograph_celltype_association.txt
    output: /cluster/project/nexus/phrt/levesque_melanoma_2019/data/20191016/primaryMelanoma/analysis_M181024/atypical_removed/M181024.genes_cells_filtered.corrected.atypical_removed.RDS, /cluster/project/nexus/phrt/levesque_melanoma_2019/data/20191016/primaryMelanoma/analysis_M181024/atypical_removed/M181024.genes_cells_filtered.corrected.atypical_removed.phenograph_celltype_association.txt
    jobid: 9
    benchmark: /cluster/project/nexus/phrt/levesque_melanoma_2019/data/20191016/primaryMelanoma/analysis_M181024/atypical_removed/M181024.genes_cells_filtered.corrected.atypical_removed.benchmark
    wildcards: sample=M181024.genes_cells_filtered.corrected
    threads: 4

Rscript /cluster/project/nexus/phrt/levesque_melanoma_2019/git/tupro-pipeline/scripts//filter_out_atypical_cells.R  --sce_in /cluster/project/nexus/phrt/levesque_melanoma_2019/data/20191016/primaryMelanoma/analysis_M181024/celltype_classification/M181024.genes_cells_filtered.corrected.RDS --cluster_table /cluster/project/nexus/phrt/levesque_melanoma_2019/data/20191016/primaryMelanoma/analysis_M181024/celltype_classification/M181024.genes_cells_filtered.corrected.phenograph_celltype_association.txt --celltype_config /cluster/project/nexus/phrt/levesque_melanoma_2019/git/tupro-pipeline/required_files/melanoma/celltype_config_melanoma.tsv --threshold_filter 5 --min_threshold 5 --threshold_type percentage_cells --outDir /cluster/project/nexus/phrt/levesque_melanoma_2019/data/20191016/primaryMelanoma/analysis_M181024/atypical_removed/ --sample_name M181024.genes_cells_filtered.corrected 
Generic job.
Submitted job 9 with external jobid 'Job <103427253> is submitted to queue <normal.4h>.'.
Finished job 9.
6 of 13 steps (46%) done

rule sample_integration:
    input: /cluster/project/nexus/phrt/levesque_melanoma_2019/git/tupro-pipeline/required_files/melanoma/previous_mel_samples_RDS.txt, /cluster/project/nexus/phrt/levesque_melanoma_2019/data/20191016/primaryMelanoma/analysis_M181024/atypical_removed/M181024.genes_cells_filtered.corrected.atypical_removed.RDS
    output: /cluster/project/nexus/phrt/levesque_melanoma_2019/data/20191016/primaryMelanoma/analysis_M181024/plotting/M181024.genes_cells_filtered.corrected.atypical_removed.sample_integration_highlight_current.png
    jobid: 4
    benchmark: /cluster/project/nexus/phrt/levesque_melanoma_2019/data/20191016/primaryMelanoma/analysis_M181024/plotting/M181024.genes_cells_filtered.corrected.atypical_removed.sample_integration.benchmark
    wildcards: sample=M181024.genes_cells_filtered.corrected.atypical_removed
    threads: 4

Rscript /cluster//project/nexus/phrt/levesque_melanoma_2019/git/tupro-pipeline/scripts/sample_integration.R  --cohort_list /cluster/project/nexus/phrt/levesque_melanoma_2019/git/tupro-pipeline/required_files/melanoma/previous_mel_samples_RDS.txt --sample_data /cluster/project/nexus/phrt/levesque_melanoma_2019/data/20191016/primaryMelanoma/analysis_M181024/atypical_removed/M181024.genes_cells_filtered.corrected.atypical_removed.RDS --sampleName M181024.genes_cells_filtered.corrected.atypical_removed --sampleName_short M181024 --colour_config /cluster/project/nexus/phrt/levesque_melanoma_2019/git/tupro-pipeline/required_files/melanoma/colour_config_melanoma.txt --outdir /cluster/project/nexus/phrt/levesque_melanoma_2019/data/20191016/primaryMelanoma/analysis_M181024/plotting/
Generic job.
Submitted job 4 with external jobid 'Job <103427261> is submitted to queue <bigmem.4h>.'.

rule generate_cell_type_boxplot:
    input: /cluster/project/nexus/phrt/levesque_melanoma_2019/git/tupro-pipeline/required_files/melanoma/previous_mel_samples_cell_types.txt, /cluster/project/nexus/phrt/levesque_melanoma_2019/data/20191016/primaryMelanoma/analysis_M181024/atypical_removed/M181024.genes_cells_filtered.corrected.atypical_removed.phenograph_celltype_association.txt
    output: /cluster/project/nexus/phrt/levesque_melanoma_2019/data/20191016/primaryMelanoma/analysis_M181024/plotting/M181024.genes_cells_filtered.corrected.atypical_removed.boxplot_cell_types_cohort.png
    jobid: 7
    benchmark: /cluster/project/nexus/phrt/levesque_melanoma_2019/data/20191016/primaryMelanoma/analysis_M181024/plotting/M181024.genes_cells_filtered.corrected.atypical_removed.boxplot_cell_types_cohort.benchmark
    wildcards: sample=M181024.genes_cells_filtered.corrected.atypical_removed
    threads: 4

Rscript /cluster/project/nexus/phrt/levesque_melanoma_2019/git/tupro-pipeline/scripts//generate_boxplot_fractions_celltypes.R  --previous_samples /cluster/project/nexus/phrt/levesque_melanoma_2019/git/tupro-pipeline/required_files/melanoma/previous_mel_samples_cell_types.txt --current_sample /cluster/project/nexus/phrt/levesque_melanoma_2019/data/20191016/primaryMelanoma/analysis_M181024/atypical_removed/M181024.genes_cells_filtered.corrected.atypical_removed.phenograph_celltype_association.txt --sampleName M181024.genes_cells_filtered.corrected.atypical_removed --sampleName_short M181024 --outDir /cluster/project/nexus/phrt/levesque_melanoma_2019/data/20191016/primaryMelanoma/analysis_M181024/plotting/
Generic job.
Submitted job 7 with external jobid 'Job <103427262> is submitted to queue <normal.4h>.'.

rule gene_exp:
    input: /cluster/project/nexus/phrt/levesque_melanoma_2019/data/20191016/primaryMelanoma/analysis_M181024/atypical_removed/M181024.genes_cells_filtered.corrected.atypical_removed.RDS
    output: /cluster/project/nexus/phrt/levesque_melanoma_2019/data/20191016/primaryMelanoma/analysis_M181024/gene_exp/M181024.genes_cells_filtered.corrected.atypical_removed.gene_expression_per_cluster.tsv
    jobid: 5
    benchmark: /cluster/project/nexus/phrt/levesque_melanoma_2019/data/20191016/primaryMelanoma/analysis_M181024/gene_exp/M181024.genes_cells_filtered.corrected.atypical_removed.gene_exp.benchmark
    wildcards: sample=M181024.genes_cells_filtered.corrected.atypical_removed

Rscript /cluster/project/nexus/phrt/levesque_melanoma_2019/git/tupro-pipeline/scripts//get_cluster_gene_expression.R  --sce_in /cluster/project/nexus/phrt/levesque_melanoma_2019/data/20191016/primaryMelanoma/analysis_M181024/atypical_removed/M181024.genes_cells_filtered.corrected.atypical_removed.RDS --priority_genes /cluster/project/nexus/phrt/levesque_melanoma_2019/git/mel_required/priority_genes_melanoma.txt  --filtering_threshold_sample 20 --filter_type_sample number_cells --outDir /cluster/project/nexus/phrt/levesque_melanoma_2019/data/20191016/primaryMelanoma/analysis_M181024/gene_exp/ --sample_name M181024.genes_cells_filtered.corrected.atypical_removed 
Generic job.
Submitted job 5 with external jobid 'Job <103427263> is submitted to queue <normal.4h>.'.

rule diff_exp_genes:
    input: /cluster/project/nexus/phrt/levesque_melanoma_2019/data/20191016/primaryMelanoma/analysis_M181024/atypical_removed/M181024.genes_cells_filtered.corrected.atypical_removed.RDS, /cluster/project/nexus/phrt/levesque_melanoma_2019/data/20191016/primaryMelanoma/analysis_M181024/atypical_removed/M181024.genes_cells_filtered.corrected.atypical_removed.phenograph_celltype_association.txt
    output: /cluster/project/nexus/phrt/levesque_melanoma_2019/data/20191016/primaryMelanoma/analysis_M181024/diff_exp/M181024.genes_cells_filtered.corrected.atypical_removed.diffExp_success.txt
    jobid: 2
    benchmark: /cluster/project/nexus/phrt/levesque_melanoma_2019/data/20191016/primaryMelanoma/analysis_M181024/diff_exp/M181024.genes_cells_filtered.corrected.atypical_removed.diff_exp.benchmark
    wildcards: sample=M181024.genes_cells_filtered.corrected.atypical_removed

Rscript /cluster/work/bewi/ngs/projects/tumorProfiler/code/all/scTumorProfiler/scripts/apply_DE_analysis.R --sample_data /cluster/project/nexus/phrt/levesque_melanoma_2019/data/20191016/primaryMelanoma/analysis_M181024/atypical_removed/M181024.genes_cells_filtered.corrected.atypical_removed.RDS --sampleName M181024.genes_cells_filtered.corrected.atypical_removed --cluster_table /cluster/project/nexus/phrt/levesque_melanoma_2019/data/20191016/primaryMelanoma/analysis_M181024/atypical_removed/M181024.genes_cells_filtered.corrected.atypical_removed.phenograph_celltype_association.txt --malignant_tag melanoma --outdir /cluster/project/nexus/phrt/levesque_melanoma_2019/data/20191016/primaryMelanoma/analysis_M181024/diff_exp/ ; date > /cluster/project/nexus/phrt/levesque_melanoma_2019/data/20191016/primaryMelanoma/analysis_M181024/diff_exp/M181024.genes_cells_filtered.corrected.atypical_removed.diffExp_success.txt 
Generic job.
Submitted job 2 with external jobid 'Job <103427264> is submitted to queue <normal.4h>.'.

rule gsva:
    input: /cluster/project/nexus/phrt/levesque_melanoma_2019/data/20191016/primaryMelanoma/analysis_M181024/atypical_removed/M181024.genes_cells_filtered.corrected.atypical_removed.RDS
    output: /cluster/project/nexus/phrt/levesque_melanoma_2019/data/20191016/primaryMelanoma/analysis_M181024/gsva/M181024.genes_cells_filtered.corrected.atypical_removed.gsetscore_hm.png
    jobid: 8
    benchmark: /cluster/project/nexus/phrt/levesque_melanoma_2019/data/20191016/primaryMelanoma/analysis_M181024/gsva/M181024.genes_cells_filtered.corrected.atypical_removed.gsva.benchmark
    wildcards: sample=M181024.genes_cells_filtered.corrected.atypical_removed
    threads: 4

Rscript /cluster/project/nexus/phrt/levesque_melanoma_2019/git/tupro-pipeline/scripts//celltyping_gsva.r  --SCE /cluster/project/nexus/phrt/levesque_melanoma_2019/data/20191016/primaryMelanoma/analysis_M181024/atypical_removed/M181024.genes_cells_filtered.corrected.atypical_removed.RDS --geneset /cluster/project/nexus/phrt/levesque_melanoma_2019/git/tupro-pipeline/required_files/melanoma/hallmark_human_MAPK_and_filtered.gmt  --outputDirec /cluster/project/nexus/phrt/levesque_melanoma_2019/data/20191016/primaryMelanoma/analysis_M181024/gsva/ --sampleName M181024.genes_cells_filtered.corrected.atypical_removed 
Generic job.
Submitted job 8 with external jobid 'Job <103427265> is submitted to queue <normal.4h>.'.

rule plotting:
    input: /cluster/project/nexus/phrt/levesque_melanoma_2019/data/20191016/primaryMelanoma/analysis_M181024/atypical_removed/M181024.genes_cells_filtered.corrected.atypical_removed.RDS
    output: /cluster/project/nexus/phrt/levesque_melanoma_2019/data/20191016/primaryMelanoma/analysis_M181024/plotting/M181024.genes_cells_filtered.corrected.atypical_removed.LibSize.png
    jobid: 1
    benchmark: /cluster/project/nexus/phrt/levesque_melanoma_2019/data/20191016/primaryMelanoma/analysis_M181024/plotting/M181024.genes_cells_filtered.corrected.atypical_removed.plotting.benchmark
    wildcards: sample=M181024.genes_cells_filtered.corrected.atypical_removed
    threads: 4

Rscript /cluster/project/nexus/phrt/levesque_melanoma_2019/git/tupro-pipeline/scripts//scRNA_pipeline_plotting.R  --sce_in /cluster/project/nexus/phrt/levesque_melanoma_2019/data/20191016/primaryMelanoma/analysis_M181024/atypical_removed/M181024.genes_cells_filtered.corrected.atypical_removed.RDS --genelist /cluster/project/nexus/phrt/levesque_melanoma_2019/git/mel_required/priority_genes_melanoma.txt  --outDir /cluster/project/nexus/phrt/levesque_melanoma_2019/data/20191016/primaryMelanoma/analysis_M181024/plotting/ --sampleName M181024.genes_cells_filtered.corrected.atypical_removed --colour_config /cluster/project/nexus/phrt/levesque_melanoma_2019/git/tupro-pipeline/required_files/melanoma/colour_config_melanoma.txt
Generic job.
Submitted job 1 with external jobid 'Job <103427266> is submitted to queue <normal.4h>.'.
Finished job 7.
7 of 13 steps (54%) done
Finished job 5.
8 of 13 steps (62%) done
Finished job 8.
9 of 13 steps (69%) done
Finished job 1.
10 of 13 steps (77%) done
Finished job 2.
11 of 13 steps (85%) done
Finished job 4.
12 of 13 steps (92%) done

localrule scTranscriptomics:
    input: /cluster/project/nexus/phrt/levesque_melanoma_2019/data/20191016/primaryMelanoma/analysis_M181024/diff_exp/M181024.genes_cells_filtered.corrected.atypical_removed.diffExp_success.txt, /cluster/project/nexus/phrt/levesque_melanoma_2019/data/20191016/primaryMelanoma/analysis_M181024/gene_exp/M181024.genes_cells_filtered.corrected.atypical_removed.gene_expression_per_cluster.tsv, /cluster/project/nexus/phrt/levesque_melanoma_2019/data/20191016/primaryMelanoma/analysis_M181024/rawCounts/M181024.h5.histogram_library_sizes.png, /cluster/project/nexus/phrt/levesque_melanoma_2019/data/20191016/primaryMelanoma/analysis_M181024/filteredCounts/M181024.genes_cells_filtered.h5.histogram_library_sizes.png, /cluster/project/nexus/phrt/levesque_melanoma_2019/data/20191016/primaryMelanoma/analysis_M181024/plotting/M181024.genes_cells_filtered.corrected.atypical_removed.LibSize.png, /cluster/project/nexus/phrt/levesque_melanoma_2019/data/20191016/primaryMelanoma/analysis_M181024/plotting/M181024.genes_cells_filtered.corrected.atypical_removed.boxplot_cell_types_cohort.png, /cluster/project/nexus/phrt/levesque_melanoma_2019/data/20191016/primaryMelanoma/analysis_M181024/plotting/M181024.genes_cells_filtered.corrected.atypical_removed.sample_integration_highlight_current.png, /cluster/project/nexus/phrt/levesque_melanoma_2019/data/20191016/primaryMelanoma/analysis_M181024/gsva/M181024.genes_cells_filtered.corrected.atypical_removed.gsetscore_hm.png
    output: /cluster/project/nexus/phrt/levesque_melanoma_2019/data/20191016/primaryMelanoma/analysis_M181024/complete_sc_transcriptomics.txt
    jobid: 0
    benchmark: /cluster/project/nexus/phrt/levesque_melanoma_2019/data/20191016/primaryMelanoma/analysis_M181024/complete_sc_transcriptomics.txt.benchmark

date > /cluster/project/nexus/phrt/levesque_melanoma_2019/data/20191016/primaryMelanoma/analysis_M181024/complete_sc_transcriptomics.txt
Finished job 0.
13 of 13 steps (100%) done
Complete log: /cluster/project/nexus/phrt/levesque_melanoma_2019/data/20191016/primaryMelanoma/snake_analysis_files_M181024/.snakemake/log/2019-10-28T095429.855023.snakemake.log
