Major	Subtype
Fibroblasts.c0	none
Keratinocyte.c1	none
Endothelial.cell	none
Fibroblasts.c3	none
Fibroblasts.c4	none
Keratinocyte.c5	none
Pericyte.c6	none
Keratinocyte.c7	none
Macrophage.DC	none
T.cell	T.cells.CD8_normal_Newman15,T.cells.naive_normal_Newman15,T.cells.memory.resting_normal_Newman15,T.cells.memory.activated_normal_Newman15,T.cells.regulatory_normal_Newman15,T.cells.gamma.delta_normal_Newman15,T.cells.early.activated_melanoma_Feldman18,T.cells.memory.effector_melanoma_Feldman18,T.cells.exhausted_melanoma_Feldman18
NK.cells_normal_Newman15.MERGED	NK.cells.resting_normal_Newman15,NK.cells.activated_normal_Newman15
Pericyte.c10	none
Keratinocyte.c11	none
Secretory.epithelial.cell	none
Smooth.muscle.cell	none
Keratinocyte.c14	none
Melanocyte	none
Neural.cell	none
Cornified.Env	none
B.cell	none
