Antibody	HS1_1	HS1_2	HS1_3	HS2_1	HS2_2	HS2_4	HS3_1	HS3_2	HS3_4
CD1c	2	2	2	3	2	2	3	3	3.5
CD1d	3	3	2.5	3	2.5	2.5	4	4	4
CD2	3	3	3	3	2.5	2.5	3	3	3
CD3	2.5	2.2	2.5	2.5	2.5	2.5	4	4	3.5
CD4_RPA-T4	2	2	2	2	2	2	3	3	3
CD5	2.5	2.5	2.5	3	3	2.5	4	4	4
CD8a_RPA-T8	2.2	2.5	2.5	2.8	3	3	4	4	4
CD10	3	2	2	2.5	2.2	2	2.5	2.5	2.5
CD11a	4	3.5	4	4	3.5	3.5	4	4	4
CD11b	3	3	2.5	3	3	3	4.5	4	4
CD11c	4	3	3	4	3	3	4	5	4
CD14	3	2.5	2.5	3.5	3	3	4	4.5	5
CD15	3	2.5	2.5	3	3	3	4	4	4
CD16	2	2	0.5	2	2	2	3	3	3
CD19	3	2.5	2	3	2	3	4	4	4
CD20	3	2	2	3	2	2	3.5	3	3
CD21	3.5	3.5	3	3	2.5	3	3.5	4	4
CD22	3	2	2	3	3	3	3.5	3.5	3
CD24	3	3	2.5	3	3	3	3	4	4
CD25	3	2.5	2.5	4	3	4	4	5	4.5
CD27	2.3	2	2	2	2	2	3	3	3
CD28	2.5	2	2.5	3	3	3	4	4	5
CD30	2.7	2.5	2.5	2.5	2.5	3	4	4	4
CD31	3.3	3	3	5	4	5	5	5	4.5
CD32	3	2.5	3	3	2.5	3	3	4	4
CD33	1.5	1.5	1.5	2	2	3	2.5	3	3
CD36	2.8	2.5	2	3	2.5	2.5	4	5	5
CD38	2	2	2	2.5	2.5	2	4	4	4
CD39	2.5	3	2.5	3	2.8	3	4	4	4
CD40	2	2	2	2	2	2.5	2	3	2
CD44	3.7	3	3	3.5	3	3	4	5	4.5
CD45	3	3	2	3	3	3	4	3.5	4
CD45RO	2	1.5	2	2	2	2	3.5	4	4
CD45RA	2	2	1.5	2	2	2	2.8	2	3
CD47	3	3	4	5	6	5.5	4	5	3
CD48	3	2	2.5	3	2	3	2.5	3	3
CD49f	3	3	3	5	5	5	5	5	5
CD56	3	2	2	3	3	4	4	4	4
CD57	3.5	3	3	3	3	3	4	4	4
CD58	2	2	2	3	3	3	4	4	4
CD62L	3	2	2	3	2	3	4	3	3
CD64	2	2	2	2	2	3	3	3.8	3.8
CD66b	3.5	2.5	2.5	3	2	2.5	4	4	4
CD69	2	2	2	3	3	3	3	4	3.5
CD70	3.2	3	3	4	3.5	3	3	4.5	5
CD71	3	2	2	3.5	3	2.5	3	3.3	4
CD73	2.5	2.5	2.5	4	3	2.5	4	4	5
CD80	3	2.5	2.5	3	3	3	4	4	4
CD81	2.5	2.5	2.5	4	3	4	4	4	5
CD86	2.5	2	2.5	3	3	4	3.5	4	4.5
CD90	4	4	3.5	5	3.5	3.5	5	5	5
CD95	2	2.5	2.5	3	3	3	4	4	4
CD96	2.5	2.2	2.2	3	3	3	3.5	3.5	4
CD103	2.5	2	2	2	2	2	2	3	3
CD107a	3	2.5	2.5	4	3	3.5	4	4	4
CD117	2.2	2	2	3	2	3	3.5	3.5	3
CD123	2	2	1.5	2	2	2	3	3	3.5
CD124	3	2.5	2.5	3	2.5	2.5	4	4	4
CD127	2.5	2.5	1.7	2.5	3	2.5	3	4	4
CD134	3	3	2.5	3	3	3	4	4	4
CD137	3	3	3	3	3	3	4	4	4.5
CD138	2.2	2.2	2	2.2	2	2	2.5	3	3
CD141	3	2.8	3	4	3	3.5	4	5	5
CD152	2	2	2	3	2.2	3	3	3.5	3.5
CD154	2.5	2.5	2.5	3	2.2	3	4	4	4
CD161	2	2	2	2	2	3	3	3	3
CD183	4	4	3.6	4	4	3.8	5	5	5
CD184	2	2	2	3	2	2	3	3	3
CD185	2.8	2.5	2	3	3	3	4	4	4
CD194	2	2	2	2	2	2	4	4	4
CD195	3	2	2	2	2	2	3	3	3
CD196	3	2.5	2.5	2.5	2.5	3	3	3	4
CD197	3	2.2	2.5	3	4	3	5.5	5.5	5.5
CD223	3	2.5	2.5	2.8	3	3	4	4	4.5
CD270	3	2.5	2.5	3	3	3	4	4	4.5
CD272	2.5	2.5	2.5	2.5	2.5	3	3.5	3.5	4
CD273	2	2	2	2	3	3	4	4	4
CD274	2.5	2.5	2.5	3	3	3	4	4	4
CD278	3	2	2.5	4	2	3	4	3.8	4
CD279	2.5	2	2	2.5	3	3	4	4	4
CD294	2.5	2.5	2	2.5	3	3	4	4	4
CD314	3	2.2	3	4	3	3	4	4.5	5
CD335	3	2	2	4	3	3	4	4	4
CD336	3	3	3	4	3	3	4	4.5	4.5
CD337	3	2.5	3	4	4	4	5	5	5
CD366	2.5	2	2.5	3	3	3	4	4	4
B7-H4	3.5	3	3	4	3	3	4	4	4
HLA-A-B-C	1.5	1.5	1	1	1.5	2	2	2	2
HLA-DR	3.3	3	3.5	5	5	5	5	5	5
ITGB7	2	1.5	2	2	1.8	2	3	3	3
IgM	3	3	3	3	3	3	3	3	3
TIGIT	2	2	2	2	2	2	3	3	3
Podoplanin	4	3	3.5	2.5	3	2.5	4	4	4
TCR-a-b	3.5	3	3	3	3.2	4	5	5	5
TCR-Vd2	2.5	2	2	3	2	3	4	4	4
TCR-Va24-Ja18	2.5	2.5	2	3	2.5	3	4	4	4
TCR-Va7.2	3	3	3	3	3	3	4	4	4
