Antibody	PM_1	PM_2	PM_3	HS1_2	HS2_2	HS3_1	HS3_2	HS3_4	LN1	LN2	LN4
CD2	1	1	1	1	1	1	1	1	1	1	1
CD5	1	1	1	1	1	1	1	1	1	1	1
CD11a	1	1	1	1	1	1	1	1	1	1	1
CD31	1	1	1	1	1	1	1	1	1	1	1
CD32	1	1	1	1	1	1	1	1	1	1	1
CD39	1	1	1	1	1	1	1	1	1	1	1
CD44	1	1	1	1	1	1	1	1	1	1	1
CD45	1	1	1	1	1	1	1	1	1	1	1
CD47	1	1	1	1	1	1	1	1	1	1	1
CD48	1	1	1	1	1	1	1	1	1	1	1
CD49f	1	1	1	1	1	1	1	1	1	1	1
CD73	1	1	1	1	1	1	1	1	1	1	1
"HLA-A,B,C"	1	1	1	1	1	1	1	1	1	1	1
HLA-DR	1	1	1	1	1	1	1	1	1	1	1
CD36	1	1	0	1	1	1	1	1	1	1	1
CD123	1	1	1	1	1	1	1	1	1	1	1
CD11c	1	0	1	1	0	1	1	1	1	1	1
CD45RO	0	1	0	1	1	1	1	1	1	1	1
CD64	1	0	1	1	0	1	1	1	1	1	1
CD71	1	1	1	1	1	1	1	1	1	1	1
CD95	1	0	1	1	1	1	1	1	1	1	1
CD3	0	0	0	1	1	1	1	1	1	1	1
CD11b	0	0	0	1	1	1	1	1	1	1	1
CD1c	0	0	0	1	0	1	1	1	1	1	1
CD107a	1	1	1	1	1	1	1	1	0	1	0
CD278	1	1	0	1	1	1	1	0	1	1	1
CD33	0	0	0	0	0	1	1	1	1	1	1
CD10	1	1	1	1	1	1	1	1	0	1	0
CD38	0	0	0	1	1	0	0	0	1	1	1
CD45RA	0	0	0	0	1	1	0	0	1	1	1
CD69	0	0	0	0	0	1	0	1	1	1	1
CD141	0	1	0	1	1	1	0	0	0	1	0
integrin._7	0	0	0	1	1	0	1	1	1	0	0
Podoplanin	1	1	1	0	1	1	1	1	0	1	1
CD56	0	0	0	1	0	0	0	0	1	1	1
CD57	0	0	0	1	0	1	0	0	1	1	0
CD117	0	0	0	1	0	1	1	1	0	1	1
CD4_RPA-T4	0	0	0	0	0	0	0	0	1	1	1
CD8_RPA-T8	0	0	0	0	0	0	0	0	1	1	1
CD19	0	0	0	0	0	0	0	0	1	1	1
CD20	0	0	0	0	0	0	0	0	1	1	1
CD21	0	0	0	0	0	0	0	0	1	1	1
CD22	0	0	0	0	0	0	0	0	1	1	1
CD27	0	0	0	0	0	0	0	0	1	1	1
CD40	0	0	0	0	0	0	0	0	1	1	1
CD90	1	1	1	1	1	1	1	1	0	1	0
CD127	0	0	0	0	0	1	0	1	0	1	0
CD14	0	0	0	0	0	0	0	0	0	1	1
CD16	0	0	0	0	0	0	0	0	0	1	1
CD24	0	0	0	0	0	0	0	0	0	1	1
CD28	0	0	0	1	0	0	1	0	0	0	0
CD62L	0	0	0	0	0	0	0	0	0	1	1
IgM	0	0	0	0	0	0	0	0	0	1	1
TCR._-_	0	0	0	1	1	0	0	0	0	0	0
CD86	0	0	0	0	0	1	0	0	0	0	0
CD103	0	0	0	1	1	1	1	1	1	1	0
CD195	0	0	0	0	1	1	1	1	0	0	0
CD1d	0	0	0	0	0	0	0	0	0	0	0
TCR.V_2	0	0	0	0	0	0	0	0	0	0	0
TCR.V_7.2	0	0	0	0	0	0	0	0	0	0	0
CD70	0	0	0	0	0	1	0	0	0	1	0
CD194	0	0	0	0	1	0	0	0	0	0	0
CD58	0	0	0	0	0	0	0	0	0	1	0
CD66b	0	0	0	1	1	0	0	0	0	1	0
CD81	0	0	0	0	0	0	0	0	0	1	1
CD96	0	0	0	0	0	1	1	1	0	1	0
CD154	0	0	0	0	0	0	0	0	0	0	0
CD185	0	0	0	0	0	0	0	0	0	0	0
CD335	0	0	0	0	0	0	0	0	0	0	1
CD137	0	0	0	0	0	0	0	0	0	0	0
CD161	0	0	0	0	0	0	0	0	0	0	0
CD274	0	0	0	0	0	0	0	0	1	1	1
CD314	0	0	0	0	0	0	0	0	0	0	0
CD15	0	0	0	0	0	0	0	0	0	0	0
CD25	0	0	0	0	0	0	0	0	0	0	0
CD80	0	0	0	0	0	0	0	0	0	0	0
CD134	0	0	0	0	0	0	0	0	0	1	0
CD196	0	0	0	0	0	0	0	0	0	0	0
CD272	0	0	0	0	0	0	0	0	0	0	0
CD30	0	0	0	0	0	0	0	0	0	1	0
CD124	0	0	0	0	0	0	0	0	0	1	0
CD197	0	0	0	1	0	0	0	0	0	0	0
CD273	0	0	0	0	0	0	0	0	0	1	0
CD294	0	0	0	0	0	0	0	0	0	1	0
CD337	0	0	0	0	0	0	0	0	0	0	0
CD366	0	0	0	1	0	0	0	0	0	0	0
CD138	0	0	0	0	0	0	0	0	0	0	0
CD152	0	0	0	0	0	0	0	0	0	0	0
CD183	0	0	0	0	0	0	0	0	0	0	0
CD184	0	0	0	0	0	0	0	0	0	0	0
CD223	0	0	0	0	0	0	0	0	0	0	0
CD270	0	0	0	0	0	0	0	0	0	0	0
CD279	0	0	0	0	0	0	0	0	0	0	0
CD336	0	0	0	0	0	0	0	0	0	0	0
B7-H4	0	0	0	0	0	0	0	0	0	0	0
TIGIT	0	0	0	0	0	0	0	0	0	0	0
TCR.V_24-J_18	0	0	0	0	0	0	0	0	0	0	0
