Antibody	IT_1	IT_2	IT_3
CD4.new	1	1	1
CD8.new	1	1	1
CD275.ICOSL	1	0	1
CD269.BCMA.TNFRSF17	0	0	0
CD326.EpCAM	0	0	0
CD146	0	0	0
CD324.E-cadh.	0	0	0
CD206.MMR	0	1	0
CD163	0	0	0
CD83	0	0	0
CD303.CLEC4C	0	1	1
CD304.NRP1.Neuropilin 1	0	1	1
CD133.Prominin1.PROM1	0	0	0
CD209.DC-SIGN	0	0	0
MAC-2.Galectin-3	1	0	0
Podocalyxin.PODXL	0	0	0